id;context;commenter
1;Borders Borders Practical;methodical
2;Pakistan;parse
3;neural Wooden Optimization;Tasty Rubber Car mindshare EXE
4;bandwidth Liaison;program Auto Loan Account Refined
5;infomediaries;Fantastic Fresh Salad
6;Steel Avon Visionary;exploit transition
7;User-centric Principal Pennsylvania;repurpose Sleek
8;mesh system Triple-buffered;Cotton
9;Advanced grow;Handmade Wooden Cheese Fresh
10;input Naira;Markets
