id;name;phone;email;candidate_status;candidate_function;date_available;image_content;image_content_content_type;candidate_track;recruitment_channel;linked_in_profile_path
1;Industrial;749-389-5793 x05150;Eric_Sporer@hotmail.com;NEW_APPLICANT;JAVA_DEVELOPER;bifurcated scalable;64656c6976657261626c6573207265696e76656e7420323420686f7572;image/png;BUSINESS;WEBSITE;world-class Frozen IB
2;Highway Ergonomic;363.675.6285;Geovanny_Carter84@yahoo.com;NEW_APPLICANT;JAVA_DEVELOPER;Small partnerships;486172626f72204d6f6e74616e61;image/png;BUSINESS;WEBSITE;Salad Web virtual
3;Refined Squares;148-853-8183;Sven22@gmail.com;NEW_APPLICANT;JAVA_DEVELOPER;magenta Concrete;4d6175726974616e6961;image/png;BUSINESS;WEBSITE;mission-critical
4;Berkshire Small Plastic Pants Investor;615-449-5256;Nola24@gmail.com;NEW_APPLICANT;JAVA_DEVELOPER;Gloves Bedfordshire Argentine Peso;6f70656e2d736f75726365207475726e2d6b6579;image/png;BUSINESS;WEBSITE;bricks-and-clicks Concrete Global
5;Fiji Dollar Profound Bacon;555.229.0985 x98613;Fay_Price89@gmail.com;NEW_APPLICANT;JAVA_DEVELOPER;Dynamic Home Loan Account Tools;486f6d6520476c6f766573204c6174766961;image/png;BUSINESS;WEBSITE;Fish
6;payment calculating;(355) 053-6222 x5993;Simeon.Ullrich@yahoo.com;NEW_APPLICANT;JAVA_DEVELOPER;calculate;56696c6c6167657320756e69666f726d20504349;image/png;BUSINESS;WEBSITE;reinvent
7;eco-centric Bedfordshire mesh;986.950.0266;Florine51@hotmail.com;NEW_APPLICANT;JAVA_DEVELOPER;discrete redundant;426f7264657273;image/png;BUSINESS;WEBSITE;interfaces
8;Garden Dale Wallis and Futuna;(858) 020-0833;Brandy_Hane@yahoo.com;NEW_APPLICANT;JAVA_DEVELOPER;Frozen Analyst card;636f6e74656e74;image/png;BUSINESS;WEBSITE;Enterprise-wide Benin
9;Tuna Response invoice;1-765-467-4025 x317;Adrianna9@gmail.com;NEW_APPLICANT;JAVA_DEVELOPER;Shoes Music connect;47656e657269632046726f7a656e2054756e612048545450;image/png;BUSINESS;WEBSITE;payment Soap
10;Web;1-085-698-5635 x61485;Troy_Muller@hotmail.com;NEW_APPLICANT;JAVA_DEVELOPER;Ergonomic Rubber Chicken;776972656c657373;image/png;BUSINESS;WEBSITE;Personal Loan Account HTTP
