id;question
1;Applications
2;Montenegro
3;frictionless
4;Rubber Awesome Frozen Mouse
5;Trinidad and Tobago Dollar
6;Customer-focused
7;Shoes Rubber Mall
8;users scalable
9;transmitting parse infrastructures
10;matrix Implementation Shirt
