{
    "name": "ContactMoment",
    "fields": [
        {
            "fieldName": "contactType",
            "fieldType": "ContactType",
            "fieldValues": "PHONE_CALL,INTERVIEW,MAIL,VIDEO_CALL",
            "fieldValidateRules": [
                "required"
            ]
        },
        {
            "fieldName": "contactDate",
            "fieldType": "LocalDate",
            "fieldValidateRules": [
                "required"
            ]
        },
        {
            "fieldName": "contactContext",
            "fieldType": "ContactContext",
            "fieldValues": "INTRODUCTION,FIRST_MEETING,SECOND_MEETING,CONTRACT_NEGOTIATION,TECHNICAL",
            "fieldValidateRules": [
                "required"
            ]
        },
        {
            "fieldName": "interviewer",
            "fieldType": "String",
            "fieldValidateRules": [
                "required"
            ]
        },
        {
            "fieldName": "location",
            "fieldType": "String"
        }
    ],
    "relationships": [
        {
            "relationshipType": "many-to-one",
            "otherEntityName": "candidacy",
            "otherEntityRelationshipName": "contactMoment",
            "relationshipName": "candidacy",
            "otherEntityField": "id"
        },
        {
            "relationshipType": "many-to-one",
            "otherEntityName": "candidate",
            "otherEntityRelationshipName": "contactMoments",
            "relationshipName": "candidate",
            "otherEntityField": "id"
        }
    ],
    "changelogDate": "20191011121612",
    "entityTableName": "contact_moment",
    "dto": "mapstruct",
    "pagination": "no",
    "service": "serviceImpl",
    "jpaMetamodelFiltering": false,
    "fluentMethods": true,
    "clientRootFolder": "",
    "applications": [
        "jhipsterRecruitment"
    ]
}