{
    "name": "FeedbackAnswer",
    "fields": [
        {
            "fieldName": "answer",
            "fieldType": "String",
            "fieldValidateRules": [
                "required"
            ]
        }
    ],
    "relationships": [
        {
            "relationshipType": "many-to-one",
            "otherEntityName": "feedbackQuestion",
            "otherEntityRelationshipName": "feedbackAnswer",
            "relationshipName": "feedbackQuestion",
            "otherEntityField": "id"
        },
        {
            "relationshipType": "many-to-one",
            "otherEntityName": "candidacy",
            "otherEntityRelationshipName": "feedbackAnswer",
            "relationshipName": "candidacy",
            "otherEntityField": "id"
        }
    ],
    "changelogDate": "20191011121614",
    "entityTableName": "feedback_answer",
    "dto": "mapstruct",
    "pagination": "no",
    "service": "serviceImpl",
    "jpaMetamodelFiltering": false,
    "fluentMethods": true,
    "clientRootFolder": "",
    "applications": [
        "jhipsterRecruitment"
    ]
}