{
    "name": "FeedbackQuestion",
    "fields": [
        {
            "fieldName": "question",
            "fieldType": "String",
            "fieldValidateRules": [
                "required"
            ]
        }
    ],
    "relationships": [],
    "changelogDate": "20191011121615",
    "entityTableName": "feedback_question",
    "dto": "mapstruct",
    "pagination": "no",
    "service": "serviceImpl",
    "jpaMetamodelFiltering": false,
    "fluentMethods": true,
    "clientRootFolder": "",
    "applications": [
        "jhipsterRecruitment"
    ]
}