{
    "name": "CandidateSubClass",
    "fields": [
        {
            "fieldName": "candidateType",
            "fieldType": "CandidateType",
            "fieldValues": "FREELANCE,INTERN,PAYROLL,STUDENT"
        }
    ],
    "relationships": [],
    "changelogDate": "20191011121429",
    "entityTableName": "candidate_sub_class",
    "dto": "mapstruct",
    "pagination": "no",
    "service": "serviceImpl",
    "jpaMetamodelFiltering": false,
    "fluentMethods": true,
    "clientRootFolder": "",
    "applications": [
        "jhipsterRecruitment"
    ]
}